How students’ social-economic status and type of school affect their math scores
…
##1

We have nested levels in this data. Because a student can only study
in one school (student nested in school) and a school can only be either
private or public (school nested in Type of school).

##2

## Joining with `by = join_by(School)`

## # A tibble: 2,174 × 7
##    School Type    Size Status   Math mStatus cStatus
##    <fct>  <chr>  <dbl>  <dbl>  <dbl>   <dbl>   <dbl>
##  1 1      public   842 -0.228 15.9    0.0256 -0.254 
##  2 1      public   842 -0.208  1.86   0.0256 -0.234 
##  3 1      public   842  0.532 -2.83   0.0256  0.506 
##  4 1      public   842  0.662  2.12   0.0256  0.636 
##  5 1      public   842 -0.228  6.76   0.0256 -0.254 
##  6 1      public   842 -1.08   0.725  0.0256 -1.10  
##  7 1      public   842 -1.03   0.836  0.0256 -1.05  
##  8 1      public   842  0.242  6.79   0.0256  0.216 
##  9 1      public   842 -0.048  8.45   0.0256 -0.0736
## 10 1      public   842  1.46   4.19   0.0256  1.44  
## # ℹ 2,164 more rows
…
